Models for forecasting multiple seasonality
…
---

## Decomposing the components...

```r
fasster(USAccDeaths ~ poly(1) + trig(12)) %>%
  as_tsibble()
```

```
## # A tsibble: 72 x 5 [28DAY]
## # Keys:      NULL
##         index USAccDeaths    Fitted `poly(1)`  `trig(12)`
##        <date>       <dbl>     <dbl>     <dbl>       <dbl>
##  1 1973-01-01        9007  8945.040  9739.812  -794.77259
##  2 1973-02-01        8106  8207.858  9753.710 -1545.85205
##  3 1973-03-01        8928  8960.893  9719.158  -758.26463
##  4 1973-04-01        9137  9170.288  9706.466  -536.17723
##  5 1973-05-01       10017 10014.962  9693.052   321.91018
##  6 1973-06-01       10826 10495.883  9693.885   801.99768
##  7 1973-07-01       11317 11498.179  9829.593  1668.58623
##  8 1973-08-01       10744 10728.987  9754.980   974.00629
##  9 1973-09-01        9713  9695.427  9761.167   -65.73952
## 10 1973-10-01        9938 10001.591  9768.409   233.18132
## # ... with 62 more rows
```
…
