fable::booking_amsterdam
…
# Tidy temporal data structure

### From `ts` to `tsibble`

```r
as_tsibble(co2)
```

```
#> # A tsibble: 468 x 2 [1M]
#>       index value
#>       <mth> <dbl>
#>  1 1959 Jan  315.
#>  2 1959 Feb  316.
#>  3 1959 Mar  316.
#>  4 1959 Apr  318.
#>  5 1959 May  318.
#>  6 1959 Jun  318 
#>  7 1959 Jul  316.
#>  8 1959 Aug  315.
#>  9 1959 Sep  314.
#> 10 1959 Oct  313.
#> # … with 458 more rows
```
…
# Tidy temporal data structure

### Domestic tourism in Australia

```r
library(tsibble)
tourism
```

```
#> # A tsibble: 24,320 x 5 [1Q]
#> # Key:       Region, State, Purpose [304]
#>    Quarter Region   State           Purpose  Trips
#>      <qtr> <chr>    <chr>           <chr>    <dbl>
#>  1 1998 Q1 Adelaide South Australia Business  135.
#>  2 1998 Q2 Adelaide South Australia Business  110.
#>  3 1998 Q3 Adelaide South Australia Business  166.
#>  4 1998 Q4 Adelaide South Australia Business  127.
#>  5 1999 Q1 Adelaide South Australia Business  137.
#>  6 1999 Q2 Adelaide South Australia Business  200.
#>  7 1999 Q3 Adelaide South Australia Business  169.
#>  8 1999 Q4 Adelaide South Australia Business  134.
#>  9 2000 Q1 Adelaide South Australia Business  154.
#> 10 2000 Q2 Adelaide South Australia Business  169.
#> # … with 24,310 more rows
```
…
# Data manipulation with dplyr

### Holiday tourism by state

```r
holiday_aus <- tourism %>% 
  filter(Purpose=="Holiday") %>%
  group_by(State) %>%
  summarise(Trips = sum(Trips))
```

```
#> # A tsibble: 640 x 3 [1Q]
#> # Key:       State [8]
#>    State Quarter Trips
#>    <chr>   <qtr> <dbl>
#>  1 ACT   1998 Q1  196.
#>  2 ACT   1998 Q2  127.
#>  3 ACT   1998 Q3  111.
#>  4 ACT   1998 Q4  170.
#>  5 ACT   1999 Q1  108.
#>  6 ACT   1999 Q2  125.
#>  7 ACT   1999 Q3  178.
#>  8 ACT   1999 Q4  218.
#>  9 ACT   2000 Q1  158.
#> 10 ACT   2000 Q2  155.
#> # … with 630 more rows
```
…
# Feature extraction

### Compute features relating to STL decompositions

```r
tourism_features <- tourism %>% 
  features(Trips, feature_set(tags = "stl"))
```

```
#> # A tibble: 304 x 10
#>    Region  State Purpose trend_strength seasonal_streng… spikiness linearity curvature seasonal_peak_y… seasonal_trough…
#>    <chr>   <chr> <chr>            <dbl>            <dbl>     <dbl>     <dbl>     <dbl>            <dbl>            <dbl>
#>  1 Adelai… Sout… Busine…          0.451            0.380   1.62e+2    -5.51     71.4                  3                1
#>  2 Adelai… Sout… Holiday          0.541            0.601   9.95e+0    48.9      78.2                  1                3
#>  3 Adelai… Sout… Other            0.743            0.189   2.28e+0    95.0      43.4                  2                1
#>  4 Adelai… Sout… Visiti…          0.433            0.446   6.01e+1    34.9      71.1                  1                3
#>  5 Adelai… Sout… Busine…          0.453            0.140   1.18e-1     0.944    -3.30                 3                1
#>  6 Adelai… Sout… Holiday          0.512            0.244   1.92e-1    10.4      23.8                  2                1
#>  7 Adelai… Sout… Other            0.584            0.374   5.02e-4     4.29      3.21                 2                2
#>  8 Adelai… Sout… Visiti…          0.481            0.228   7.56e+0    34.3      -0.587                0                3
#>  9 Alice … Nort… Busine…          0.526            0.224   1.79e-1    23.8      19.6                  0                1
#> 10 Alice … Nort… Holiday          0.377            0.827   8.13e-1   -19.6      10.3                  3                1
#> # … with 294 more rows
```
…
### Look at the data

<br>

.left-code[

```r
*holiday_aus
```
]
.right-plot[

```
#> # A tsibble: 640 x 3 [1Q]
#> # Key:       State [8]
#>    State Quarter Trips
#>    <chr>   <qtr> <dbl>
#>  1 ACT   1998 Q1  196.
#>  2 ACT   1998 Q2  127.
#>  3 ACT   1998 Q3  111.
#>  4 ACT   1998 Q4  170.
#>  5 ACT   1999 Q1  108.
#>  6 ACT   1999 Q2  125.
#>  7 ACT   1999 Q3  178.
#>  8 ACT   1999 Q4  218.
#>  9 ACT   2000 Q1  158.
#> 10 ACT   2000 Q2  155.
#> # … with 630 more rows
```
…
<br>

.left-code[

```r
holiday_aus %>% 
  model(ETS(Trips)) %>% 
* forecast(h = "3 years")
```
]
.right-plot[

```
#> # A fable: 96 x 5 [1Q]
#> # Key:     State, .model [8]
#>    State .model     Quarter Trips .distribution
#>    <chr> <chr>        <qtr> <dbl> <dist>       
#>  1 ACT   ETS(Trips) 2018 Q1  215. N(215, 3148) 
#>  2 ACT   ETS(Trips) 2018 Q2  189. N(189, 2436) 
#>  3 ACT   ETS(Trips) 2018 Q3  192. N(192, 2527) 
#>  4 ACT   ETS(Trips) 2018 Q4  197. N(197, 3610) 
#>  5 ACT   ETS(Trips) 2019 Q1  215. N(215, 3908) 
#>  6 ACT   ETS(Trips) 2019 Q2  189. N(189, 3222) 
#>  7 ACT   ETS(Trips) 2019 Q3  192. N(192, 3370) 
#>  8 ACT   ETS(Trips) 2019 Q4  197. N(197, 4602) 
#>  9 ACT   ETS(Trips) 2020 Q1  215. N(215, 4684) 
#> 10 ACT   ETS(Trips) 2020 Q2  189. N(189, 4025) 
#> # … with 86 more rows
```
…
# Forecasting with fable

### Specify and estimate some model(s)

```r
holiday_aus %>% 
  model(
    custom = ETS(log(Trips) ~ error("A") + trend("A") + season("A")),
    auto = ETS(Trips)
  ) %>% 
* forecast()
```

```
#> # A fable: 128 x 5 [1Q]
#> # Key:     State, .model [16]
#>    State           .model Quarter Trips .distribution    
#>    <chr>           <chr>    <qtr> <dbl> <dist>           
#>  1 ACT             custom 2018 Q1  241. t(N(5.5, 0.058)) 
#>  2 ACT             custom 2018 Q2  200. t(N(5.3, 0.059)) 
#>  3 ACT             custom 2018 Q3  212. t(N(5.3, 0.060)) 
#>  4 ACT             custom 2018 Q4  193. t(N(5.2, 0.061)) 
#>  5 ACT             custom 2019 Q1  246. t(N(5.5, 0.071)) 
#>  6 ACT             custom 2019 Q2  204. t(N(5.3, 0.072)) 
#>  7 ACT             custom 2019 Q3  216. t(N(5.3, 0.073)) 
#>  8 ACT             custom 2019 Q4  198. t(N(5.3, 0.074)) 
#>  9 New South Wales custom 2018 Q1 4042. t(N(8.3, 0.0034))
#> 10 New South Wales custom 2018 Q2 3325. t(N(8.1, 0.0036))
#> # … with 118 more rows
```
…
```
#> # A tibble: 24 x 10
#>    .model State              .type    ME  RMSE   MAE   MPE  MAPE  MASE     ACF1
#>    <chr>  <chr>              <chr> <dbl> <dbl> <dbl> <dbl> <dbl> <dbl>    <dbl>
#>  1 ets_a  Western Australia  Test   28.2  73.3  62.9  2.14  6.33 0.722 -0.170  
#>  2 ets_a  South Australia    Test   46.6  64.0  53.9  6.23  7.38 0.805 -0.349  
#>  3 ets_n  Western Australia  Test   56.9  83.6  76.7  5.11  7.53 0.880 -0.310  
#>  4 ets_n  South Australia    Test   63.8  79.0  66.9  8.66  9.15 1.000 -0.273  
#>  5 ets_a  Northern Territory Test   22.8  41.7  36.0 10.6  17.6  1.01  -0.156  
#>  6 arima  South Australia    Test   64.2  80.1  68.9  8.75  9.49 1.03  -0.312  
#>  7 arima  Tasmania           Test   51.6  78.0  66.9  9.64 14.5  1.04  -0.0532 
#>  8 ets_a  ACT                Test   20.1  42.7  34.8  8.23 17.5  1.05  -0.268  
#>  9 ets_a  Queensland         Test  140.  181.  145.   5.82  6.09 1.05   0.00319
#> 10 arima  Western Australia  Test   93.5 108.   96.1  9.17  9.49 1.10  -0.347  
#> # … with 14 more rows
```
…
```
#> # A fable: 96 x 5 [1Q]
#> # Key:     State, .model [8]
#>    State .model Quarter Trips .distribution
#>    <chr> <chr>    <qtr> <dbl> <dist>       
#>  1 ACT   combn  2015 Q1  182. N(182, 1968) 
#>  2 ACT   combn  2015 Q2  143. N(143, 1261) 
#>  3 ACT   combn  2015 Q3  174. N(174, 1787) 
#>  4 ACT   combn  2015 Q4  134. N(134, 1328) 
#>  5 ACT   combn  2016 Q1  180. N(180, 2391) 
#>  6 ACT   combn  2016 Q2  144. N(144, 1645) 
#>  7 ACT   combn  2016 Q3  172. N(172, 2168) 
#>  8 ACT   combn  2016 Q4  136. N(136, 1712) 
#>  9 ACT   combn  2017 Q1  180. N(180, 2784) 
#> 10 ACT   combn  2017 Q2  145. N(145, 2002) 
#> # … with 86 more rows
```
…
---

# Inconclusive for just a few series

--

### Consider all series in the data...

```r
tourism
```

```
#> # A tsibble: 24,320 x 5 [1Q]
#> # Key:       Region, State, Purpose [304]
#>    Quarter Region   State           Purpose  Trips
#>      <qtr> <chr>    <chr>           <chr>    <dbl>
#>  1 1998 Q1 Adelaide South Australia Business  135.
#>  2 1998 Q2 Adelaide South Australia Business  110.
#>  3 1998 Q3 Adelaide South Australia Business  166.
#>  4 1998 Q4 Adelaide South Australia Business  127.
#>  5 1999 Q1 Adelaide South Australia Business  137.
#>  6 1999 Q2 Adelaide South Australia Business  200.
#>  7 1999 Q3 Adelaide South Australia Business  169.
#>  8 1999 Q4 Adelaide South Australia Business  134.
#>  9 2000 Q1 Adelaide South Australia Business  154.
#> 10 2000 Q2 Adelaide South Australia Business  169.
#> # … with 24,310 more rows
```
---

# But wait, there's more! Aggregations over keys.

---

# Consider _all_ series in the data...

```r
tourism_aggregated <- tourism %>% 
* aggregate_key((State / Region) * Purpose, Trips = sum(Trips))
```

```
#> # A tsibble: 34,000 x 5 [1Q]
#> # Key:       State, Region, Purpose [425]
#>    State   Region  Purpose Quarter  Trips
#>    <chr>   <chr>   <chr>     <qtr>  <dbl>
#>  1 <total> <total> <total> 1998 Q1 23182.
#>  2 <total> <total> <total> 1998 Q2 20323.
#>  3 <total> <total> <total> 1998 Q3 19827.
#>  4 <total> <total> <total> 1998 Q4 20830.
#>  5 <total> <total> <total> 1999 Q1 22087.
#>  6 <total> <total> <total> 1999 Q2 21458.
#>  7 <total> <total> <total> 1999 Q3 19914.
#>  8 <total> <total> <total> 1999 Q4 20028.
#>  9 <total> <total> <total> 2000 Q1 22339.
#> 10 <total> <total> <total> 2000 Q2 19941.
#> # … with 33,990 more rows
```
…
```r
*library(future)
*plan(multiprocess)
tourism_fit <- tourism_aggregated %>%
  filter(Quarter < yearquarter("2015 Q1")) %>% 
  model(
    ets_n = ETS(Trips ~ trend("N")),
    ets_a = ETS(Trips ~ trend("A")),
    arima = ARIMA(Trips)
  ) %>% 
  mutate(combn = (ets_n + ets_a + arima)/3)
```

```
#> # A mable: 425 x 7
#> # Key:     State, Region, Purpose [425]
#>    State   Region  Purpose  ets_n        ets_a        arima                            combn        
#>    <chr>   <chr>   <chr>    <model>      <model>      <model>                          <model>      
#>  1 <total> <total> <total>  <ETS(M,N,M)> <ETS(M,A,M)> <ARIMA(1,0,1)(1,1,0)[4]>         <COMBINATION>
#>  2 <total> <total> Business <ETS(M,N,M)> <ETS(M,A,A)> <ARIMA(0,0,1)(2,1,0)[4]>         <COMBINATION>
#>  3 <total> <total> Holiday  <ETS(M,N,M)> <ETS(M,A,M)> <ARIMA(0,0,0)(0,1,2)[4]>         <COMBINATION>
#>  4 <total> <total> Other    <ETS(M,N,A)> <ETS(M,A,A)> <ARIMA(0,1,1)(1,0,0)[4]>         <COMBINATION>
#>  5 <total> <total> Visiting <ETS(M,N,M)> <ETS(A,A,A)> <ARIMA(1,0,1)(2,1,0)[4]>         <COMBINATION>
#>  6 ACT     <total> <total>  <ETS(A,N,N)> <ETS(M,A,N)> <ARIMA(0,0,0) w/ mean>           <COMBINATION>
#>  7 ACT     <total> Business <ETS(M,N,A)> <ETS(M,A,A)> <ARIMA(0,0,0)(1,0,0)[4] w/ mean> <COMBINATION>
#>  8 ACT     <total> Holiday  <ETS(M,N,A)> <ETS(M,A,A)> <ARIMA(0,0,0)(1,0,0)[4] w/ mean> <COMBINATION>
#>  9 ACT     <total> Other    <ETS(A,N,N)> <ETS(M,A,N)> <ARIMA(0,0,0) w/ mean>           <COMBINATION>
#> 10 ACT     <total> Visiting <ETS(A,N,N)> <ETS(A,A,N)> <ARIMA(1,0,0) w/ mean>           <COMBINATION>
#> # … with 415 more rows
```
…
---

# Forecast reconciliation

### MinT with covariance shrink

```r
tourism_fc_reconciled <- tourism_fit %>% 
* reconcile(coherent = min_trace(combn, method = "shrink")) %>%
  forecast(h = "3 years")
```

```
#> # A fable: 25,500 x 7 [1Q]
#> # Key:     State, Region, Purpose, .model [2,125]
#>    State   Region  Purpose .model Quarter  Trips .distribution    
#>    <chr>   <chr>   <chr>   <chr>    <qtr>  <dbl> <dist>           
#>  1 <total> <total> <total> ets_n  2015 Q1 25108. N(25108, 1078489)
#>  2 <total> <total> <total> ets_n  2015 Q2 23339. N(23339, 1171475)
#>  3 <total> <total> <total> ets_n  2015 Q3 22771. N(22771, 1343242)
#>  4 <total> <total> <total> ets_n  2015 Q4 23417. N(23417, 1661871)
#>  5 <total> <total> <total> ets_n  2016 Q1 25108. N(25108, 2188347)
#>  6 <total> <total> <total> ets_n  2016 Q2 23339. N(23339, 2130906)
#>  7 <total> <total> <total> ets_n  2016 Q3 22771. N(22771, 2256904)
#>  8 <total> <total> <total> ets_n  2016 Q4 23417. N(23417, 2628507)
#>  9 <total> <total> <total> ets_n  2017 Q1 25108. N(25108, 3300157)
#> 10 <total> <total> <total> ets_n  2017 Q2 23339. N(23339, 3092023)
#> # … with 25,490 more rows
```
…
