fable::useR2019
…
# Tidy temporal data structure

### From `ts` to `tsibble`

```r
as_tsibble(co2)
```

```
#> # A tsibble: 468 x 2 [1M]
#>       index value
#>       <mth> <dbl>
#>  1 1959 Jan  315.
#>  2 1959 Feb  316.
#>  3 1959 Mar  316.
#>  4 1959 Apr  318.
#>  5 1959 May  318.
#>  6 1959 Jun  318 
#>  7 1959 Jul  316.
#>  8 1959 Aug  315.
#>  9 1959 Sep  314.
#> 10 1959 Oct  313.
#> # … with 458 more rows
```
…
# Tidy temporal data structure

### Domestic tourism in Australia

```r
library(tsibble)
tourism
```

```
#> # A tsibble: 24,320 x 5 [1Q]
#> # Key:       Region, State, Purpose [304]
#>    Quarter Region   State           Purpose  Trips
#>      <qtr> <chr>    <chr>           <chr>    <dbl>
#>  1 1998 Q1 Adelaide South Australia Business  135.
#>  2 1998 Q2 Adelaide South Australia Business  110.
#>  3 1998 Q3 Adelaide South Australia Business  166.
#>  4 1998 Q4 Adelaide South Australia Business  127.
#>  5 1999 Q1 Adelaide South Australia Business  137.
#>  6 1999 Q2 Adelaide South Australia Business  200.
#>  7 1999 Q3 Adelaide South Australia Business  169.
#>  8 1999 Q4 Adelaide South Australia Business  134.
#>  9 2000 Q1 Adelaide South Australia Business  154.
#> 10 2000 Q2 Adelaide South Australia Business  169.
#> # … with 24,310 more rows
```
…
# Exploring tourism in Australia

### How does travel vary by purpose?

```r
library(dplyr)
aus_travel <- tourism %>% 
  group_by(Purpose) %>% 
  summarise(Trips = sum(Trips))
```

```
#> # A tsibble: 320 x 3 [1Q]
#> # Key:       Purpose [4]
#>    Purpose  Quarter Trips
#>    <chr>      <qtr> <dbl>
#>  1 Business 1998 Q1 3599.
#>  2 Business 1998 Q2 3724.
#>  3 Business 1998 Q3 4356.
#>  4 Business 1998 Q4 3796.
#>  5 Business 1999 Q1 3335.
#>  6 Business 1999 Q2 4714.
#>  7 Business 1999 Q3 4190.
#>  8 Business 1999 Q4 3701.
#>  9 Business 2000 Q1 3562.
#> 10 Business 2000 Q2 4018.
#> # … with 310 more rows
```
…
# Exploring tourism in Australia

### Seeing the bigger picture

```r
tourism
```

```
#> # A tsibble: 24,320 x 5 [1Q]
#> # Key:       Region, State, Purpose [304]
#>    Quarter Region   State           Purpose  Trips
#>      <qtr> <chr>    <chr>           <chr>    <dbl>
#>  1 1998 Q1 Adelaide South Australia Business  135.
#>  2 1998 Q2 Adelaide South Australia Business  110.
#>  3 1998 Q3 Adelaide South Australia Business  166.
#>  4 1998 Q4 Adelaide South Australia Business  127.
#>  5 1999 Q1 Adelaide South Australia Business  137.
#>  6 1999 Q2 Adelaide South Australia Business  200.
#>  7 1999 Q3 Adelaide South Australia Business  169.
#>  8 1999 Q4 Adelaide South Australia Business  134.
#>  9 2000 Q1 Adelaide South Australia Business  154.
#> 10 2000 Q2 Adelaide South Australia Business  169.
#> # … with 24,310 more rows
```
…
# Forecasting with fable

### Look at the data

.left-code[

```r
*aus_travel
```
]
.right-plot[

```
#> # A tsibble: 320 x 3 [1Q]
#> # Key:       Purpose [4]
#>    Purpose  Quarter Trips
#>    <chr>      <qtr> <dbl>
#>  1 Business 1998 Q1 3599.
#>  2 Business 1998 Q2 3724.
#>  3 Business 1998 Q3 4356.
#>  4 Business 1998 Q4 3796.
#>  5 Business 1999 Q1 3335.
#>  6 Business 1999 Q2 4714.
#>  7 Business 1999 Q3 4190.
#>  8 Business 1999 Q4 3701.
#>  9 Business 2000 Q1 3562.
#> 10 Business 2000 Q2 4018.
#> # … with 310 more rows
```
…
### Make some forecasts

.left-code[

```r
aus_travel %>% 
  model(ETS(Trips)) %>% 
* forecast(h = "3 years")
```
]
.right-plot[

```
#> # A fable: 48 x 5 [1Q]
#> # Key:     Purpose, .model [4]
#>    Purpose  .model     Quarter Trips .distribution  
#>    <chr>    <chr>        <qtr> <dbl> <dist>         
#>  1 Business ETS(Trips) 2018 Q1 4937. N(4937, 137658)
#>  2 Business ETS(Trips) 2018 Q2 5604. N(5604, 209086)
#>  3 Business ETS(Trips) 2018 Q3 5888. N(5888, 268396)
#>  4 Business ETS(Trips) 2018 Q4 5575. N(5575, 293305)
#>  5 Business ETS(Trips) 2019 Q1 4937. N(4937, 295999)
#>  6 Business ETS(Trips) 2019 Q2 5604. N(5604, 367634)
#>  7 Business ETS(Trips) 2019 Q3 5888. N(5888, 427147)
#>  8 Business ETS(Trips) 2019 Q4 5575. N(5575, 452257)
#>  9 Business ETS(Trips) 2020 Q1 4937. N(4937, 455161)
#> 10 Business ETS(Trips) 2020 Q2 5604. N(5604, 527003)
#> # … with 38 more rows
```
…
```
#> # A fable: 48 x 5 [1Q]
#> # Key:     Purpose, .model [4]
#>    Purpose  .model Quarter Trips .distribution  
#>    <chr>    <chr>    <qtr> <dbl> <dist>         
#>  1 Business combn  2018 Q1 5004. N(5004, 122410)
#>  2 Business combn  2018 Q2 5731. N(5731, 174693)
#>  3 Business combn  2018 Q3 6036. N(6036, 218982)
#>  4 Business combn  2018 Q4 5759. N(5759, 244190)
#>  5 Business combn  2019 Q1 5144. N(5144, 260489)
#>  6 Business combn  2019 Q2 5871. N(5871, 321799)
#>  7 Business combn  2019 Q3 6176. N(6176, 375379)
#>  8 Business combn  2019 Q4 5898. N(5898, 409760)
#>  9 Business combn  2020 Q1 5284. N(5284, 435676)
#> 10 Business combn  2020 Q2 6010. N(6010, 507587)
#> # … with 38 more rows
```
…
---

# Forecast reconciliation

---

# Consider _all_ series in the data...

```r
tourism_aggregated <- tourism %>% 
* aggregate_key((State / Region) * Purpose, Trips = sum(Trips))
```

```
#> # A tsibble: 34,000 x 5 [1Q]
#> # Key:       State, Region, Purpose [425]
#>    State   Region  Purpose Quarter  Trips
#>    <chr>   <chr>   <chr>     <qtr>  <dbl>
#>  1 <total> <total> <total> 1998 Q1 23182.
#>  2 <total> <total> <total> 1998 Q2 20323.
#>  3 <total> <total> <total> 1998 Q3 19827.
#>  4 <total> <total> <total> 1998 Q4 20830.
#>  5 <total> <total> <total> 1999 Q1 22087.
#>  6 <total> <total> <total> 1999 Q2 21458.
#>  7 <total> <total> <total> 1999 Q3 19914.
#>  8 <total> <total> <total> 1999 Q4 20028.
#>  9 <total> <total> <total> 2000 Q1 22339.
#> 10 <total> <total> <total> 2000 Q2 19941.
#> # … with 33,990 more rows
```
…
```r
*library(future)
*plan(multiprocess)
tourism_fit <- tourism_aggregated %>%
  filter(Quarter < yearquarter("2015 Q1")) %>% 
  model(
    ets_n = ETS(Trips ~ trend("N")),
    ets_a = ETS(Trips ~ trend("A")),
    arima = ARIMA(Trips)
  ) %>% 
  mutate(combn = (ets_n + ets_a + arima)/3)
```

```
#> # A mable: 425 x 7
#> # Key:     State, Region, Purpose [425]
#>    State   Region  Purpose  ets_n        ets_a        arima                            combn        
#>    <chr>   <chr>   <chr>    <model>      <model>      <model>                          <model>      
#>  1 <total> <total> <total>  <ETS(M,N,M)> <ETS(M,A,M)> <ARIMA(1,0,1)(1,1,0)[4]>         <COMBINATION>
#>  2 <total> <total> Business <ETS(M,N,M)> <ETS(M,A,A)> <ARIMA(0,0,1)(2,1,0)[4]>         <COMBINATION>
#>  3 <total> <total> Holiday  <ETS(M,N,M)> <ETS(M,A,M)> <ARIMA(0,0,0)(0,1,2)[4]>         <COMBINATION>
#>  4 <total> <total> Other    <ETS(M,N,A)> <ETS(M,A,A)> <ARIMA(0,1,1)(1,0,0)[4]>         <COMBINATION>
#>  5 <total> <total> Visiting <ETS(M,N,M)> <ETS(A,A,A)> <ARIMA(1,0,1)(2,1,0)[4]>         <COMBINATION>
#>  6 ACT     <total> <total>  <ETS(A,N,N)> <ETS(M,A,N)> <ARIMA(0,0,0) w/ mean>           <COMBINATION>
#>  7 ACT     <total> Business <ETS(M,N,A)> <ETS(M,A,A)> <ARIMA(0,0,0)(1,0,0)[4] w/ mean> <COMBINATION>
#>  8 ACT     <total> Holiday  <ETS(M,N,A)> <ETS(M,A,A)> <ARIMA(0,0,0)(1,0,0)[4] w/ mean> <COMBINATION>
#>  9 ACT     <total> Other    <ETS(A,N,N)> <ETS(M,A,N)> <ARIMA(0,0,0) w/ mean>           <COMBINATION>
#> 10 ACT     <total> Visiting <ETS(A,N,N)> <ETS(A,A,N)> <ARIMA(1,0,0) w/ mean>           <COMBINATION>
#> # … with 415 more rows
```

---

# Forecast reconciliation

### MinT with covariance shrink

```r
tourism_fc_reconciled <- tourism_fit %>% 
* reconcile(coherent = min_trace(combn, method = "shrink")) %>%
  forecast(h = "3 years")
```

```
#> # A fable: 25,500 x 7 [1Q]
#> # Key:     State, Region, Purpose, .model [2,125]
#>    State   Region  Purpose .model Quarter  Trips .distribution    
#>    <chr>   <chr>   <chr>   <chr>    <qtr>  <dbl> <dist>           
#>  1 <total> <total> <total> ets_n  2015 Q1 25108. N(25108, 1078489)
#>  2 <total> <total> <total> ets_n  2015 Q2 23339. N(23339, 1171475)
#>  3 <total> <total> <total> ets_n  2015 Q3 22771. N(22771, 1343242)
#>  4 <total> <total> <total> ets_n  2015 Q4 23417. N(23417, 1661871)
#>  5 <total> <total> <total> ets_n  2016 Q1 25108. N(25108, 2188347)
#>  6 <total> <total> <total> ets_n  2016 Q2 23339. N(23339, 2130906)
#>  7 <total> <total> <total> ets_n  2016 Q3 22771. N(22771, 2256904)
#>  8 <total> <total> <total> ets_n  2016 Q4 23417. N(23417, 2628507)
#>  9 <total> <total> <total> ets_n  2017 Q1 25108. N(25108, 3300157)
#> 10 <total> <total> <total> ets_n  2017 Q2 23339. N(23339, 3092023)
#> # … with 25,490 more rows
```
…
.larger[
## Multivariate modelling
]

---

# Multivariate modelling

```r
lung_deaths <- cbind(mdeaths, fdeaths) %>% 
  as_tsibble(pivot_longer = FALSE)
```

```
#> # A tsibble: 72 x 3 [1M]
#>       index mdeaths fdeaths
#>       <mth>   <dbl>   <dbl>
#>  1 1974 Jan    2134     901
#>  2 1974 Feb    1863     689
#>  3 1974 Mar    1877     827
#>  4 1974 Apr    1877     677
#>  5 1974 May    1492     522
#>  6 1974 Jun    1249     406
#>  7 1974 Jul    1280     441
#>  8 1974 Aug    1131     393
#>  9 1974 Sep    1209     387
#> 10 1974 Oct    1492     582
#> # … with 62 more rows
```
…
