fable::amazon_berlin
…
# Tidy temporal data structure

### From `ts` to `tsibble`

```r
as_tsibble(co2)
```

```
#> # A tsibble: 468 x 2 [1M]
#>       index value
#>       <mth> <dbl>
#>  1 1959 Jan  315.
#>  2 1959 Feb  316.
#>  3 1959 Mar  316.
#>  4 1959 Apr  318.
#>  5 1959 May  318.
#>  6 1959 Jun  318 
#>  7 1959 Jul  316.
#>  8 1959 Aug  315.
#>  9 1959 Sep  314.
#> 10 1959 Oct  313.
#> # … with 458 more rows
```
…
# Tidy temporal data structure

### Domestic tourism in Australia

```r
library(tsibble)
tourism
```

```
#> # A tsibble: 24,320 x 5 [1Q]
#> # Key:       Region, State, Purpose [304]
#>    Quarter Region   State           Purpose  Trips
#>      <qtr> <chr>    <chr>           <chr>    <dbl>
#>  1 1998 Q1 Adelaide South Australia Business  135.
#>  2 1998 Q2 Adelaide South Australia Business  110.
#>  3 1998 Q3 Adelaide South Australia Business  166.
#>  4 1998 Q4 Adelaide South Australia Business  127.
#>  5 1999 Q1 Adelaide South Australia Business  137.
#>  6 1999 Q2 Adelaide South Australia Business  200.
#>  7 1999 Q3 Adelaide South Australia Business  169.
#>  8 1999 Q4 Adelaide South Australia Business  134.
#>  9 2000 Q1 Adelaide South Australia Business  154.
#> 10 2000 Q2 Adelaide South Australia Business  169.
#> # … with 24,310 more rows
```

---
class: top

## Holidays by state

```r
holidays <- tourism %>% 
  filter(Purpose=="Holiday") %>%
  group_by(State) %>%
  summarise(Trips = sum(Trips))
```

```
#> # A tsibble: 640 x 3 [1Q]
#> # Key:       State [8]
#>    State Quarter Trips
#>    <chr>   <qtr> <dbl>
#>  1 ACT   1998 Q1  196.
#>  2 ACT   1998 Q2  127.
#>  3 ACT   1998 Q3  111.
#>  4 ACT   1998 Q4  170.
#>  5 ACT   1999 Q1  108.
#>  6 ACT   1999 Q2  125.
#>  7 ACT   1999 Q3  178.
#>  8 ACT   1999 Q4  218.
#>  9 ACT   2000 Q1  158.
#> 10 ACT   2000 Q2  155.
#> # … with 630 more rows
```
…
# A peak at the features

### Compute features relating to STL decompositions

```r
library(feasts)
tourism_features <- tourism %>% 
  features(Trips, feature_set(tags = "stl"))
```

```
#> # A tibble: 304 x 10
#>    Region  State Purpose trend_strength seasonal_streng… spikiness linearity curvature seasonal_peak_y… seasonal_trough…
#>    <chr>   <chr> <chr>            <dbl>            <dbl>     <dbl>     <dbl>     <dbl>            <dbl>            <dbl>
#>  1 Adelai… Sout… Busine…          0.451            0.380   1.62e+2    -5.51     71.4                  3                1
#>  2 Adelai… Sout… Holiday          0.541            0.601   9.95e+0    48.9      78.2                  1                3
#>  3 Adelai… Sout… Other            0.743            0.189   2.28e+0    95.0      43.4                  2                1
#>  4 Adelai… Sout… Visiti…          0.433            0.446   6.01e+1    34.9      71.1                  1                3
#>  5 Adelai… Sout… Busine…          0.453            0.140   1.18e-1     0.944    -3.30                 3                1
#>  6 Adelai… Sout… Holiday          0.512            0.244   1.92e-1    10.4      23.8                  2                1
#>  7 Adelai… Sout… Other            0.584            0.374   5.02e-4     4.29      3.21                 2                2
#>  8 Adelai… Sout… Visiti…          0.481            0.228   7.56e+0    34.3      -0.587                0                3
#>  9 Alice … Nort… Busine…          0.526            0.224   1.79e-1    23.8      19.6                  0                1
#> 10 Alice … Nort… Holiday          0.377            0.827   8.13e-1   -19.6      10.3                  3                1
#> # … with 294 more rows
```
…
```r
library(dplyr)
holiday_aus <- tourism %>% 
  filter(Purpose == "Holiday") %>% 
  summarise(Trips = sum(Trips))

holiday_aus %>% 
  autoplot(Trips)
```

.flex-row[

```
#> # A tsibble: 80 x 2 [1Q]
#>    Quarter  Trips
#>      <qtr>  <dbl>
#>  1 1998 Q1 11806.
#>  2 1998 Q2  9276.
#>  3 1998 Q3  8642.
#>  4 1998 Q4  9300.
#>  5 1999 Q1 11172.
#>  6 1999 Q2  9608.
#>  7 1999 Q3  8914.
#>  8 1999 Q4  9026.
#>  9 2000 Q1 11071.
#> 10 2000 Q2  9196.
#> # … with 70 more rows
```
…
### Look at the data

<br>

.left-code[

```r
*holiday_aus
```
]
.right-plot[

```
#> # A tsibble: 80 x 2 [1Q]
#>    Quarter  Trips
#>      <qtr>  <dbl>
#>  1 1998 Q1 11806.
#>  2 1998 Q2  9276.
#>  3 1998 Q3  8642.
#>  4 1998 Q4  9300.
#>  5 1999 Q1 11172.
#>  6 1999 Q2  9608.
#>  7 1999 Q3  8914.
#>  8 1999 Q4  9026.
#>  9 2000 Q1 11071.
#> 10 2000 Q2  9196.
#> # … with 70 more rows
```
…
---

# Inconclusive for just one series

--

### Consider all series in the data...

```r
tourism
```

```
#> # A tsibble: 24,320 x 5 [1Q]
#> # Key:       Region, State, Purpose [304]
#>    Quarter Region   State           Purpose  Trips
#>      <qtr> <chr>    <chr>           <chr>    <dbl>
#>  1 1998 Q1 Adelaide South Australia Business  135.
#>  2 1998 Q2 Adelaide South Australia Business  110.
#>  3 1998 Q3 Adelaide South Australia Business  166.
#>  4 1998 Q4 Adelaide South Australia Business  127.
#>  5 1999 Q1 Adelaide South Australia Business  137.
#>  6 1999 Q2 Adelaide South Australia Business  200.
#>  7 1999 Q3 Adelaide South Australia Business  169.
#>  8 1999 Q4 Adelaide South Australia Business  134.
#>  9 2000 Q1 Adelaide South Australia Business  154.
#> 10 2000 Q2 Adelaide South Australia Business  169.
#> # … with 24,310 more rows
```
---

# But wait, there's more! Aggregations over keys.

---

# Consider _all_ series in the data...

```r
tourism_aggregated <- tourism %>% 
* aggregate_key((State / Region) * Purpose, Trips = sum(Trips))
```

```
#> # A tsibble: 34,000 x 5 [1Q]
#> # Key:       State, Region, Purpose [425]
#>    State   Region  Purpose Quarter  Trips
#>    <chr>   <chr>   <chr>     <qtr>  <dbl>
#>  1 <total> <total> <total> 1998 Q1 23182.
#>  2 <total> <total> <total> 1998 Q2 20323.
#>  3 <total> <total> <total> 1998 Q3 19827.
#>  4 <total> <total> <total> 1998 Q4 20830.
#>  5 <total> <total> <total> 1999 Q1 22087.
#>  6 <total> <total> <total> 1999 Q2 21458.
#>  7 <total> <total> <total> 1999 Q3 19914.
#>  8 <total> <total> <total> 1999 Q4 20028.
#>  9 <total> <total> <total> 2000 Q1 22339.
#> 10 <total> <total> <total> 2000 Q2 19941.
#> # … with 33,990 more rows
```
…
```r
*library(future)
*plan(multiprocess)
tourism_fit <- tourism_aggregated %>%
  filter(Quarter < yearquarter("2015 Q1")) %>% 
  model(
    ets_n = ETS(Trips ~ trend("N")),
    ets_a = ETS(Trips ~ trend("A")),
    arima = ARIMA(Trips)
  ) %>% 
  mutate(combn = (ets_n + ets_a + arima)/3)
```

```
#> # A mable: 425 x 7
#> # Key:     State, Region, Purpose [425]
#>    State   Region  Purpose  ets_n        ets_a        arima                            combn        
#>    <chr>   <chr>   <chr>    <model>      <model>      <model>                          <model>      
#>  1 <total> <total> <total>  <ETS(M,N,M)> <ETS(M,A,M)> <ARIMA(1,0,1)(1,1,0)[4]>         <COMBINATION>
#>  2 <total> <total> Business <ETS(M,N,M)> <ETS(M,A,A)> <ARIMA(0,0,1)(2,1,0)[4]>         <COMBINATION>
#>  3 <total> <total> Holiday  <ETS(M,N,M)> <ETS(M,A,M)> <ARIMA(0,0,0)(0,1,2)[4]>         <COMBINATION>
#>  4 <total> <total> Other    <ETS(M,N,A)> <ETS(M,A,A)> <ARIMA(0,1,1)(1,0,0)[4]>         <COMBINATION>
#>  5 <total> <total> Visiting <ETS(M,N,M)> <ETS(A,A,A)> <ARIMA(1,0,1)(2,1,0)[4]>         <COMBINATION>
#>  6 ACT     <total> <total>  <ETS(A,N,N)> <ETS(M,A,N)> <ARIMA(0,0,0) w/ mean>           <COMBINATION>
#>  7 ACT     <total> Business <ETS(M,N,A)> <ETS(M,A,A)> <ARIMA(0,0,0)(1,0,0)[4] w/ mean> <COMBINATION>
#>  8 ACT     <total> Holiday  <ETS(M,N,A)> <ETS(M,A,A)> <ARIMA(0,0,0)(1,0,0)[4] w/ mean> <COMBINATION>
#>  9 ACT     <total> Other    <ETS(A,N,N)> <ETS(M,A,N)> <ARIMA(0,0,0) w/ mean>           <COMBINATION>
#> 10 ACT     <total> Visiting <ETS(A,N,N)> <ETS(A,A,N)> <ARIMA(1,0,0) w/ mean>           <COMBINATION>
#> # … with 415 more rows
```
…
---

# Are the combinations better?

### Forecast accuracy

```r
tourism_fc %>% 
* accuracy(tourism_aggregated) %>%
* arrange(MASE)
```

```
#> # A tibble: 1,700 x 12
#>    .model State              Region          Purpose  .type      ME   RMSE    MAE      MPE   MAPE  MASE    ACF1
#>    <chr>  <chr>              <chr>           <chr>    <chr>   <dbl>  <dbl>  <dbl>    <dbl>  <dbl> <dbl>   <dbl>
#>  1 ets_a  South Australia    Kangaroo Island Other    Test   0.0294  0.253  0.114 -Inf     Inf    0.172 -0.0738
#>  2 ets_n  South Australia    Eyre Peninsula  Holiday  Test   0.513   4.59   3.70     0.169  10.5  0.328  0.117 
#>  3 ets_a  Victoria           Peninsula       Business Test   1.55    4.65   3.68     3.63   17.9  0.366 -0.131 
#>  4 ets_a  New South Wales    Sydney          <total>  Test  -4.38   71.1   64.6     -0.344   2.83 0.410 -0.189 
#>  5 ets_n  Victoria           High Country    Other    Test   0.909   4.34   3.03    -8.61   34.4  0.421 -0.353 
#>  6 arima  Victoria           High Country    Other    Test   0.912   4.37   3.06    -8.70   34.7  0.425 -0.352 
#>  7 combn  South Australia    Eyre Peninsula  Holiday  Test   2.13    5.64   4.81     3.41   12.8  0.427  0.0170
#>  8 ets_a  Victoria           Upper Yarra     Other    Test   0.854   2.50   1.41  -Inf     Inf    0.430 -0.238 
#>  9 ets_a  Northern Territory MacDonnell      Other    Test   0.316   0.816  0.318  NaN     Inf    0.436 -0.160 
#> 10 ets_n  Queensland         Mackay          Holiday  Test  -0.469  12.7    9.43   -12.6    25.8  0.444 -0.536 
#> # … with 1,690 more rows
```
…
---

# Forecast reconciliation

### MinT with covariance shrink

```r
tourism_fc_reconciled <- tourism_fit %>% 
* reconcile(coherent = min_trace(combn, method = "shrink")) %>%
  forecast(h = "3 years")
```

```
#> # A fable: 25,500 x 7 [1Q]
#> # Key:     State, Region, Purpose, .model [2,125]
#>    State   Region  Purpose .model Quarter  Trips .distribution    
#>    <chr>   <chr>   <chr>   <chr>    <qtr>  <dbl> <dist>           
#>  1 <total> <total> <total> ets_n  2015 Q1 25108. N(25108, 1078489)
#>  2 <total> <total> <total> ets_n  2015 Q2 23339. N(23339, 1171475)
#>  3 <total> <total> <total> ets_n  2015 Q3 22771. N(22771, 1343242)
#>  4 <total> <total> <total> ets_n  2015 Q4 23417. N(23417, 1661871)
#>  5 <total> <total> <total> ets_n  2016 Q1 25108. N(25108, 2188347)
#>  6 <total> <total> <total> ets_n  2016 Q2 23339. N(23339, 2130906)
#>  7 <total> <total> <total> ets_n  2016 Q3 22771. N(22771, 2256904)
#>  8 <total> <total> <total> ets_n  2016 Q4 23417. N(23417, 2628507)
#>  9 <total> <total> <total> ets_n  2017 Q1 25108. N(25108, 3300157)
#> 10 <total> <total> <total> ets_n  2017 Q2 23339. N(23339, 3092023)
#> # … with 25,490 more rows
```
…
