NHS 2020: Forecasting multiple seasonality
…
# Admissions event data

```r
admissions <- read_csv(
  file = "~/github/webinar-msc-nhs/data/ae_uk.csv",
  col_types = cols(arrival_time=col_datetime(format = "%d/%m/%Y %H:%M"))
) %>%
  select(-ID) # ID is a redundant row identifier 
print(admissions)
```

```
#> # A tibble: 773,779 x 3
#>    gender type_injury arrival_time       
#>    <chr>  <chr>       <dttm>             
#>  1 male   minor       2010-01-01 00:35:00
#>  2 male   minor       2010-01-01 00:57:00
#>  3 male   minor       2010-01-01 00:42:00
#>  4 male   minor       2010-01-01 00:02:00
#>  5 male   minor       2010-01-01 00:24:00
#>  6 female major       2010-01-01 00:48:00
#>  7 female minor       2010-01-01 00:10:00
#>  8 male   minor       2010-01-01 00:39:00
#>  9 female minor       2010-01-01 00:56:00
#> 10 female minor       2010-01-01 00:05:00
#> # … with 773,769 more rows
```
…
# Holiday data

```r
holidays <- read_csv(
  file = "~/github/webinar-msc-nhs/data/holiday.csv",
  col_types = cols(date=col_date(format = "%d/%m/%Y"))
) %>% 
  filter(!is.na(date)) # Some extra empty rows exist that need removing
print(holidays)
```

```
#> # A tibble: 2,282 x 7
#>    date       public_holiday_type public_holiday school_holiday school_holiday_type  celebratory_day celebratory_day_ty…
#>    <date>     <chr>                        <dbl>          <dbl> <chr>                          <dbl> <chr>              
#>  1 2010-01-01 New Years Day                    1              0 0                                  0 0                  
#>  2 2010-01-02 0                                0              1 Winter School Holid…               0 0                  
#>  3 2010-01-03 0                                0              1 Winter School Holid…               0 0                  
#>  4 2010-01-04 0                                0              0 0                                  0 0                  
#>  5 2010-01-05 0                                0              0 0                                  0 0                  
#>  6 2010-01-06 0                                0              0 0                                  0 0                  
#>  7 2010-01-07 0                                0              0 0                                  0 0                  
#>  8 2010-01-08 0                                0              0 0                                  0 0                  
#>  9 2010-01-09 0                                0              0 0                                  0 0                  
#> 10 2010-01-10 0                                0              0 0                                  0 0                  
#> # … with 2,272 more rows
```
…
# Temperature data

```r
temperatures <- read_csv(
  file = "~/github/webinar-msc-nhs/data/temp.csv",
  col_types = cols(date=col_date(format = "%d/%m/%Y"))
)

print(temperatures)
```

```
#> # A tibble: 2,282 x 3
#>    date       actual_temp forecast_temp
#>    <date>           <dbl>         <dbl>
#>  1 2010-01-01         4             4.3
#>  2 2010-01-02         4.8           5  
#>  3 2010-01-03         6             6.4
#>  4 2010-01-04         3             1.9
#>  5 2010-01-05         4.1           3.8
#>  6 2010-01-06         3.5           2.2
#>  7 2010-01-07         1.6           1  
#>  8 2010-01-08         3             2.7
#>  9 2010-01-09         1.5           1  
#> 10 2010-01-10         1.4           1.3
#> # … with 2,272 more rows
```
…
# Tidy temperature data

Identify the index, key and measurement variables:

```r
temperatures <- as_tsibble(temperatures, 
*          index = ???, key = ???)
```

```
#> # A tibble: 2,282 x 3
#>    date       actual_temp forecast_temp
#>    <date>           <dbl>         <dbl>
#>  1 2010-01-01         4             4.3
#>  2 2010-01-02         4.8           5  
#>  3 2010-01-03         6             6.4
#>  4 2010-01-04         3             1.9
#>  5 2010-01-05         4.1           3.8
#>  6 2010-01-06         3.5           2.2
#>  7 2010-01-07         1.6           1  
#>  8 2010-01-08         3             2.7
#>  9 2010-01-09         1.5           1  
#> 10 2010-01-10         1.4           1.3
#> # … with 2,272 more rows
```
…
# Tidy temperature data

Identify the index, key and measurement variables:

```r
temperatures <- as_tsibble(temperatures, 
*          index = date, key = NULL)
```

```
#> # A tsibble: 2,282 x 3 [1D]
#>    date       actual_temp forecast_temp
#>    <date>           <dbl>         <dbl>
#>  1 2010-01-01         4             4.3
#>  2 2010-01-02         4.8           5  
#>  3 2010-01-03         6             6.4
#>  4 2010-01-04         3             1.9
#>  5 2010-01-05         4.1           3.8
#>  6 2010-01-06         3.5           2.2
#>  7 2010-01-07         1.6           1  
#>  8 2010-01-08         3             2.7
#>  9 2010-01-09         1.5           1  
#> 10 2010-01-10         1.4           1.3
#> # … with 2,272 more rows
```
…
# Tidy holiday data

Identify the index, key and measurement variables:

```r
holidays <- as_tsibble(holidays, 
*          index = ???, key = ???)
```

```
#> # A tibble: 2,282 x 7
#>    date       public_holiday_type public_holiday school_holiday school_holiday_type  celebratory_day celebratory_day_ty…
#>    <date>     <chr>                        <dbl>          <dbl> <chr>                          <dbl> <chr>              
#>  1 2010-01-01 New Years Day                    1              0 0                                  0 0                  
#>  2 2010-01-02 0                                0              1 Winter School Holid…               0 0                  
#>  3 2010-01-03 0                                0              1 Winter School Holid…               0 0                  
#>  4 2010-01-04 0                                0              0 0                                  0 0                  
#>  5 2010-01-05 0                                0              0 0                                  0 0                  
#>  6 2010-01-06 0                                0              0 0                                  0 0                  
#>  7 2010-01-07 0                                0              0 0                                  0 0                  
#>  8 2010-01-08 0                                0              0 0                                  0 0                  
#>  9 2010-01-09 0                                0              0 0                                  0 0                  
#> 10 2010-01-10 0                                0              0 0                                  0 0                  
#> # … with 2,272 more rows
```
…
# Tidy holiday data

Identify the index, key and measurement variables:

```r
holidays <- as_tsibble(holidays, 
*          index = date, key = NULL)
```

```
#> # A tsibble: 2,282 x 7 [1D]
#>    date       public_holiday_type public_holiday school_holiday school_holiday_type  celebratory_day celebratory_day_ty…
#>    <date>     <chr>                        <dbl>          <dbl> <chr>                          <dbl> <chr>              
#>  1 2010-01-01 New Years Day                    1              0 0                                  0 0                  
#>  2 2010-01-02 0                                0              1 Winter School Holid…               0 0                  
#>  3 2010-01-03 0                                0              1 Winter School Holid…               0 0                  
#>  4 2010-01-04 0                                0              0 0                                  0 0                  
#>  5 2010-01-05 0                                0              0 0                                  0 0                  
#>  6 2010-01-06 0                                0              0 0                                  0 0                  
#>  7 2010-01-07 0                                0              0 0                                  0 0                  
#>  8 2010-01-08 0                                0              0 0                                  0 0                  
#>  9 2010-01-09 0                                0              0 0                                  0 0                  
#> 10 2010-01-10 0                                0              0 0                                  0 0                  
#> # … with 2,272 more rows
```
…
# Tidy admissions data

Identify the index, key and measurement variables:

```r
admissions <- as_tsibble(admissions, 
*          index = ???, key = ???)
```

```
#> # A tibble: 773,779 x 3
#>    gender type_injury arrival_time       
#>    <chr>  <chr>       <dttm>             
#>  1 male   minor       2010-01-01 00:35:00
#>  2 male   minor       2010-01-01 00:57:00
#>  3 male   minor       2010-01-01 00:42:00
#>  4 male   minor       2010-01-01 00:02:00
#>  5 male   minor       2010-01-01 00:24:00
#>  6 female major       2010-01-01 00:48:00
#>  7 female minor       2010-01-01 00:10:00
#>  8 male   minor       2010-01-01 00:39:00
#>  9 female minor       2010-01-01 00:56:00
#> 10 female minor       2010-01-01 00:05:00
#> # … with 773,769 more rows
```
…
```
#> Error: A valid tsibble must have distinct rows identified by key and index.
#> ℹ Please use `duplicates()` to check the duplicated rows.
```

--

```r
duplicates(admissions, index = arrival_time, key = c(gender, type_injury))
```

```
#> # A tibble: 82,578 x 3
#>    gender type_injury arrival_time       
#>    <chr>  <chr>       <dttm>             
#>  1 female minor       2010-01-01 01:37:00
#>  2 female minor       2010-01-01 01:37:00
#>  3 female minor       2010-01-01 10:07:00
#>  4 female minor       2010-01-01 10:07:00
#>  5 female minor       2010-01-01 11:15:00
#>  6 female minor       2010-01-01 11:15:00
#>  7 male   minor       2010-01-01 12:01:00
#>  8 female minor       2010-01-01 12:24:00
#>  9 female minor       2010-01-01 12:24:00
#> 10 male   minor       2010-01-01 12:01:00
#> # … with 82,568 more rows
```
…
# Tidy admissions data

Identify the index, key and measurement variables:

```r
admissions <- admissions %>% 
* count(gender, type_injury, arrival_time, name = "arrivals") %>%
  as_tsibble(index = arrival_time, key = c(gender, type_injury))
```

```
#> # A tsibble: 731,906 x 4 [1m] <UTC>
#> # Key:       gender, type_injury [4]
#>    gender type_injury arrival_time        arrivals
#>    <chr>  <chr>       <dttm>                 <int>
#>  1 female major       2010-01-01 00:48:00        1
#>  2 female major       2010-01-01 04:19:00        1
#>  3 female major       2010-01-01 05:57:00        1
#>  4 female major       2010-01-01 12:17:00        1
#>  5 female major       2010-01-01 12:42:00        1
#>  6 female major       2010-01-01 13:34:00        1
#>  7 female major       2010-01-01 16:59:00        1
#>  8 female major       2010-01-02 23:56:00        1
#>  9 female major       2010-01-03 00:24:00        1
#> 10 female major       2010-01-03 13:14:00        1
#> # … with 731,896 more rows
```
…
# Choosing appropriate temporal intervals

```r
admissions <- admissions %>% 
* index_by(time = floor_date(arrival_time, "1 hour")) %>%
  summarise(arrivals = sum(arrivals)) %>% 
  ungroup() %>% 
  fill_gaps(arrivals = 0)
```

--

```
#> # A tsibble: 54,768 x 2 [1h] <UTC>
#>    time                arrivals
#>    <dttm>                 <dbl>
#>  1 2010-01-01 00:00:00       13
#>  2 2010-01-01 01:00:00       15
#>  3 2010-01-01 02:00:00       12
#>  4 2010-01-01 03:00:00       15
#>  5 2010-01-01 04:00:00       11
#>  6 2010-01-01 05:00:00        7
#>  7 2010-01-01 06:00:00        6
#>  8 2010-01-01 07:00:00        4
#>  9 2010-01-01 08:00:00        6
#> 10 2010-01-01 09:00:00       10
#> # … with 54,758 more rows
```
…
# Bringing the data together

```r
admissions %>% 
  # Compute the common variable
  mutate(date = as.Date(time))
```

```
#> # A tsibble: 54,768 x 3 [1h] <UTC>
#>    time                arrivals date      
#>    <dttm>                 <dbl> <date>    
#>  1 2010-01-01 00:00:00       13 2010-01-01
#>  2 2010-01-01 01:00:00       15 2010-01-01
#>  3 2010-01-01 02:00:00       12 2010-01-01
#>  4 2010-01-01 03:00:00       15 2010-01-01
#>  5 2010-01-01 04:00:00       11 2010-01-01
#>  6 2010-01-01 05:00:00        7 2010-01-01
#>  7 2010-01-01 06:00:00        6 2010-01-01
#>  8 2010-01-01 07:00:00        4 2010-01-01
#>  9 2010-01-01 08:00:00        6 2010-01-01
#> 10 2010-01-01 09:00:00       10 2010-01-01
#> # … with 54,758 more rows
```
…
# Bringing the data together

```r
admissions %>% 
  # Compute the common variable
  mutate(date = as.Date(time)) %>% 
  # Join in holiday data (keeping only 'public_holiday' for simplicity)
  left_join(holidays %>% select(public_holiday), by = "date")
```

```
#> # A tsibble: 54,768 x 4 [1h] <UTC>
#>    time                arrivals date       public_holiday
#>    <dttm>                 <dbl> <date>              <dbl>
#>  1 2010-01-01 00:00:00       13 2010-01-01              1
#>  2 2010-01-01 01:00:00       15 2010-01-01              1
#>  3 2010-01-01 02:00:00       12 2010-01-01              1
#>  4 2010-01-01 03:00:00       15 2010-01-01              1
#>  5 2010-01-01 04:00:00       11 2010-01-01              1
#>  6 2010-01-01 05:00:00        7 2010-01-01              1
#>  7 2010-01-01 06:00:00        6 2010-01-01              1
#>  8 2010-01-01 07:00:00        4 2010-01-01              1
#>  9 2010-01-01 08:00:00        6 2010-01-01              1
#> 10 2010-01-01 09:00:00       10 2010-01-01              1
#> # … with 54,758 more rows
```
…
# Bringing the data together

```r
hospital <- admissions %>% 
  # Compute the common variable
  mutate(date = as.Date(time)) %>% 
  # Join in holiday data (keeping only 'public_holiday' for simplicity)
  left_join(holidays %>% select(public_holiday), by = "date") %>% 
  # Join in temperature data (keeping only 'actual_temp' for simplicity)
  left_join(temperatures %>% select(actual_temp), by = "date")
```

```
#> # A tsibble: 54,768 x 5 [1h] <UTC>
#>    time                arrivals date       public_holiday actual_temp
#>    <dttm>                 <dbl> <date>              <dbl>       <dbl>
#>  1 2010-01-01 00:00:00       13 2010-01-01              1           4
#>  2 2010-01-01 01:00:00       15 2010-01-01              1           4
#>  3 2010-01-01 02:00:00       12 2010-01-01              1           4
#>  4 2010-01-01 03:00:00       15 2010-01-01              1           4
#>  5 2010-01-01 04:00:00       11 2010-01-01              1           4
#>  6 2010-01-01 05:00:00        7 2010-01-01              1           4
#>  7 2010-01-01 06:00:00        6 2010-01-01              1           4
#>  8 2010-01-01 07:00:00        4 2010-01-01              1           4
#>  9 2010-01-01 08:00:00        6 2010-01-01              1           4
#> 10 2010-01-01 09:00:00       10 2010-01-01              1           4
#> # … with 54,758 more rows
```
…
